…
### Quick demo

Here’s how to list up to `n_max` of the files you see in [My
Drive](https://drive.google.com). You can expect to be sent to your
browser here, to authenticate yourself and authorize the googledrive
package to deal on your behalf with Google Drive.

``` r
drive_find(n_max = 30)
#> # A dribble: 30 × 3
#>    name                   id                                drive_resource   
#>    <chr>                  <drv_id>                          <list>           
#>  1 name-squatter-mv       1ncaT91RYOvHNg2XmrLdUOhrcypK3owCm <named list [41]>
#>  2 chicken-mv-renamed.txt 1Hu-OYuiQ7A80y1kEvT6UWDFpPkTkei2A <named list [44]>
#>  3 name-squatter-mv       1WR4vBdHvwimyLR9PIl3SSDlTmgfnLWP5 <named list [41]>
#>  4 chicken-mv-renamed.txt 16l9dZkax8CAFdOGwQ4IgVVgyFLKumyUp <named list [44]>
#>  5 name-squatter-mv       1nKweOnEis8jNzvnmAX3G0rjtak5622b- <named list [41]>
#>  6 chicken-mv-renamed.txt 1tgRTfYDyXX7TgoNnDKetfbDC3Kea_aA_ <named list [44]>
#>  7 name-squatter-mv       1QQjvI_K_robo715M_YMtwYuVuPCHt1x1 <named list [41]>
#>  8 chicken-mv-renamed.txt 1VOax5G5x28UJGANVa1x3kJRH4V76xKXz <named list [44]>
#>  9 name-squatter-mv       1uuEA1mkD7327ezEqROYKz7faZj5DsNQL <named list [41]>
#> 10 chicken-mv-renamed.txt 1-0VRv2y2k91UOiomyx2WO_C3IFJSNCjM <named list [44]>
#> # ℹ 20 more rows
```
…
