An Interface to Google Drive • googledrive
…
Give humans what they want: the file name

Track what the API wants: the file ID

Hold on to all the other metadata sent back by the API

googledrive is “pipe-friendly” and, in fact, re-exports %>%, but does not require its use.

Quick demo

Here’s how to list up to n_max of the files you see in My Drive. You can expect to be sent to your browser here, to authenticate yourself and authorize the googledrive package to deal on your behalf with Google Drive.

drive_find(n_max = 30)
#> # A dribble: 30 × 3
#>    name                       id                                drive_resource  
#>    <chr>                      <drv_id>                          <list>          
#>  1 2021-09-16_r_logo.jpg      1dandXB0QZpjeGQq_56wTXKNwaqgsOa9D <named list [41…
#>  2 2021-09-16_r_about.html    1XfCI_orH4oNUZh06C4w6vXtno-BT_zmZ <named list [40…
#>  3 2021-09-16_imdb_latin1.csv 163YPvqYmGuqQiEwEFLg2s1URq4EnpkBw <named list [39…
#>  4 2021-09-16_chicken.txt     1axJz8GSmecSnaYBx0Sb3Gb-SXVaTzKw7 <named list [40…
#>  5 2021-09-16_chicken.pdf     14Hd6_VQAeEgcwBBJamc-FUlnXhp117T2 <named list [40…
#>  6 2021-09-16_chicken.jpg     1aslW1T-B8UKzAEotDWpmRFaMyMux5-it <named list [41…
#>  7 2021-09-16_chicken.csv     1Mj--zJYZJSMKsNVjk2tYFef5LnCsNoDT <named list [39…
#>  8 pqr                        143iq-CswFTwJTjVfKkcFMDW0jYqDeUj2 <named list [34…
#>  9 mno                        1gcUTnFbsF6uioJrLCsVQ78_F1wEzyNtI <named list [33…
#> 10 jkl                        17T40phn99w0hY-B_Ev0deTvVg9fmUSnt <named list [33…
#> # … with 20 more rows
…
