…
### Quick demo

Here’s how to list up to `n_max` of the files you see in [My
Drive](https://drive.google.com). You can expect to be sent to your
browser here, to authenticate yourself and authorize the googledrive
package to deal on your behalf with Google Drive.

``` r
drive_find(n_max = 30)
#> # A dribble: 30 × 3
#>    name                       id                                drive_resource
#>    <chr>                      <drv_id>                          <list>        
#>  1 chicken_poem.txt           1lAxO_zr06v6pL6dyQJ9duwH1j2ztQ3lB <named list>  
#>  2 2021-09-16_r_logo.jpg      1dandXB0QZpjeGQq_56wTXKNwaqgsOa9D <named list>  
#>  3 2021-09-16_r_about.html    1XfCI_orH4oNUZh06C4w6vXtno-BT_zmZ <named list>  
#>  4 2021-09-16_imdb_latin1.csv 163YPvqYmGuqQiEwEFLg2s1URq4EnpkBw <named list>  
#>  5 2021-09-16_chicken.txt     1axJz8GSmecSnaYBx0Sb3Gb-SXVaTzKw7 <named list>  
#>  6 2021-09-16_chicken.pdf     14Hd6_VQAeEgcwBBJamc-FUlnXhp117T2 <named list>  
#>  7 2021-09-16_chicken.jpg     1aslW1T-B8UKzAEotDWpmRFaMyMux5-it <named list>  
#>  8 2021-09-16_chicken.csv     1Mj--zJYZJSMKsNVjk2tYFef5LnCsNoDT <named list>  
#>  9 pqr                        143iq-CswFTwJTjVfKkcFMDW0jYqDeUj2 <named list>  
#> 10 mno                        1gcUTnFbsF6uioJrLCsVQ78_F1wEzyNtI <named list>  
#> # ℹ 20 more rows
```
…
