Lookup MIME type — drive_mime_type • googledrive
…
## get the mime type for jpegs
drive_mime_type("jpeg")
#> [1] "image/jpeg"

## it's vectorized
drive_mime_type(c("presentation", "pdf", "image/gif"))
#> [1] "application/vnd.google-apps.presentation"
#> [2] "application/pdf"                         
#> [3] "image/gif"                               

## see the internal tibble of MIME types known to the Drive API
drive_mime_type(expose())
#> # A tibble: 78 x 4
#>    mime_type                                            ext   human_type default
#>    <chr>                                                <chr> <chr>      <lgl>  
#>  1 text/tab-separated-values                            tsv   tsv        TRUE   
#>  2 application/x-vnd.oasis.opendocument.presentation    <NA>  <NA>       NA     
#>  3 image/jpeg                                           jpeg  jpeg       TRUE   
#>  4 image/jpeg                                           jpg   jpg        FALSE  
#>  5 image/jpeg                                           jpe   jpe        FALSE  
#>  6 image/bmp                                            <NA>  <NA>       NA     
#>  7 image/gif                                            gif   gif        TRUE   
#>  8 application/vnd.ms-excel.sheet.macroenabled.12       <NA>  <NA>       NA     
#>  9 application/vnd.openxmlformats-officedocument.wordp… dotx  dotx       TRUE   
#> 10 application/vnd.ms-powerpoint.presentation.macroena… <NA>  <NA>       NA     
#> # … with 68 more rows
…
