Request partial resources — drive_fields • googledrive
…
    Value

    drive_fields(): Character vector of field names.
prep_fields(): a string.

    See also

    Working with partial resources,
in the Drive API documentation.

    Examples

## get a tibble of all fields for the Files resource + indicator of defaults
drive_fields(expose())
#> # A tibble: 55 x 2
#>    name                  desc                                                   
#>    <chr>                 <chr>                                                  
#>  1 appProperties         "A collection of arbitrary key-value pairs which are p…
#>  2 capabilities          Capabilities the current user has on this file. Each c…
#>  3 contentHints          Additional information about the content of the file. …
#>  4 copyRequiresWriterPe… Whether the options to copy, print, or download this f…
#>  5 createdTime           The time at which the file was created (RFC 3339 date-…
#>  6 description           A short description of the file.                       
#>  7 driveId               ID of the shared drive the file resides in. Only popul…
#>  8 explicitlyTrashed     Whether the file has been explicitly trashed, as oppos…
#>  9 exportLinks           Links for exporting Google Docs to specific formats.   
#> 10 fileExtension         The final component of fullFileExtension. This is only…
#> # … with 45 more rows
…
