…
List
----

`drive_list()` pulls out name, type, & id

``` r
drive_list()
```

    ## # A tibble: 100 x 5
    ##        name         type    parents
    ##       <chr>        <chr>     <list>
    ##  1 chickwts  spreadsheet <list [1]>
    ##  2 chickwts  spreadsheet <list [1]>
    ##  3 chickwts  spreadsheet <list [1]>
    ##  4 chickwts  spreadsheet <list [1]>
    ##  5 chickwts  spreadsheet <list [1]>
    ##  6 chickwts  spreadsheet <list [1]>
    ##  7 chickwts  spreadsheet <list [1]>
    ##  8 chickwts     text/csv <list [1]>
    ##  9     test presentation <list [1]>
    ## 10      baz     document <list [1]>
    ## # ... with 90 more rows, and 2 more variables: id <chr>, gfile <list>

We can search using regular expressions

``` r
drive_list(pattern = "test")
```

    ## # A tibble: 61 x 5
    ##             name         type    parents
    ##            <chr>        <chr>     <list>
    ##  1          test presentation <list [1]>
    ##  2 tests_8675309       folder <list [1]>
    ##  3   its-a-test!   image/jpeg <list [1]>
    ##  4   its-a-test!   image/jpeg <list [1]>
    ##  5   its-a-test!   image/jpeg <list [1]>
    ##  6   its-a-test!   image/jpeg <list [1]>
    ##  7   its-a-test!   image/jpeg <list [1]>
    ##  8   its-a-test!   image/jpeg <list [1]>
    ##  9   its-a-test!   image/jpeg <list [1]>
    ## 10   its-a-test!   image/jpeg <list [1]>
    ## # ... with 51 more rows, and 2 more variables: id <chr>, gfile <list>

We can also pass additional query parameters through the `...`, for example

``` r
drive_list(pattern = "test", orderBy = "modifiedTime")
```

    ## # A tibble: 98 x 5
    ##           name       type    parents                           id
    ##          <chr>      <chr>     <list>                        <chr>
    ##  1 its-a-test! image/jpeg <list [1]> 0B0Gh-SuuA2nTYVctbGpHWURVS3c
    ##  2 its-a-test! image/jpeg <list [1]> 0B0Gh-SuuA2nTT0YtS0phR3hnX0k
    ##  3 its-a-test! image/jpeg <list [1]> 0B0Gh-SuuA2nTVC1LS0dYcUhfbDQ
    ##  4 its-a-test! image/jpeg <list [1]> 0B0Gh-SuuA2nTaXpXcGhuRDZzNjg
    ##  5 its-a-test! image/jpeg <list [1]> 0B0Gh-SuuA2nTWE9pODhrcDhiVmM
    ##  6 its-a-test! image/jpeg <list [1]> 0B0Gh-SuuA2nTSUNoTE5CdTJjSDg
    ##  7 its-a-test! image/jpeg <list [1]> 0B0Gh-SuuA2nTSjVlNDdUZXdDOUE
    ##  8 its-a-test! image/jpeg <list [1]> 0B0Gh-SuuA2nTeVg3UnpPQmMzV00
    ##  9 its-a-test! image/jpeg <list [1]> 0B0Gh-SuuA2nTcVVxcm92SnNlajQ
    ## 10 its-a-test! image/jpeg <list [1]> 0B0Gh-SuuA2nTcjJWZ01kRG5DbE0
    ## # ... with 88 more rows, and 1 more variables: gfile <list>
…
