…
this is almost an exact copy of how `gs_auth()` works

``` r
gd_auth() 
```

`gd_ls()` pulls out name, type, & id (we probably don't want to see id, but seems useful to have here, so we could pick which one we want to get more info on?)

``` r
gd_ls()
```

    ## # A tibble: 100 × 3
    ##                                                        name        type
    ##                                                       <chr>       <chr>
    ## 1                                2017 Owen Olympics Sign-up spreadsheet
    ## 2                                     contributr-maintainer spreadsheet
    ## 3                                contributr maintainer form        form
    ## 4  Space Apps 2017 - Social Media Information for All Sites spreadsheet
    ## 5  Graduate Education Working Group Nominations (Responses) spreadsheet
    ## 6          Vanderbilt Graduate Student Handbook (Responses) spreadsheet
    ## 7                                            GSC Committees        form
    ## 8                                     R-Ladies Global TEAMS    document
    ## 9                   Exec Board Reponsibilities  (Responses) spreadsheet
    ## 10                              Exec Board Reponsibilities         form
    ## # ... with 90 more rows, and 1 more variables: id <chr>
…
