…
    ## File uploaded to Google Drive: 
    ## ~/desktop/hide/test.txt 
    ## As the Google document named:
    ## This is a test

upload to a specific folder
---------------------------

``` r
gd_ls()
```

    ## # A tibble: 100 × 3
    ##                       name     type
    ##                      <chr>    <chr>
    ## 1           This is a test document
    ## 2           This is a test document
    ## 3                     test document
    ## 4                     test document
    ## 5                     test document
    ## 6                     test document
    ## 7                     test document
    ## 8                     test document
    ## 9        Happy Little Demo document
    ## 10 Football Stadium Survey     form
    ## # ... with 90 more rows, and 1 more variables: id <chr>
…
