…
List files
----------

We list files using `gd_ls()`[.](https://www.youtube.com/watch?v=F-X4SLhorvw) Possible parameters to pass to the `...` can be found here. For example, by default files are listed in descending order by most recently modified.

Here is my list using the default:

``` r
gd_ls()
```

    ## # A tibble: 100 × 3
    ##                                                name        type
    ##                                               <chr>       <chr>
    ## 1                                 test_for_deleting    document
    ## 2               Football Stadium Survey (Responses) spreadsheet
    ## 3                           Football Stadium Survey        form
    ## 4                           \U0001f33b Lucy & Jenny    document
    ## 5                                 Happy Little Demo    document
    ## 6                                    THIS IS A TEST      folder
    ## 7  Vanderbilt Graduate Student Handbook (Responses) spreadsheet
    ## 8                  WSDS Concurrent Session Abstract    document
    ## 9                 R-Ladies Nashville 6-Month Survey        form
    ## 10           Health Insurance Questions (Responses) spreadsheet
    ## # ... with 90 more rows, and 1 more variables: id <chr>

Let's say I want to order them by folders, then modified time, then name. I can do that!

``` r
gd_ls(orderBy = "folder,modifiedTime desc,name" )
```

    ## # A tibble: 100 × 3
    ##                       name   type                           id
    ##                      <chr>  <chr>                        <chr>
    ## 1           THIS IS A TEST folder 0Bw9rJumZU4vER2lldjVBZ1I0SDA
    ## 2                 r-ladies folder 0Bw9rJumZU4vEVm5fbGtYVDVRYnc
    ## 3  public-health-hackathon folder 0Bw9rJumZU4vEd3NwclZQR0k4QWs
    ## 4                enar-2017 folder 0Bw9rJumZU4vETWJ1YWczc2NJVjA
    ## 5                     lucy folder 0Bw9rJumZU4vEWm9SY3FnemEwVTg
    ## 6                    rpubs folder 0Bw9rJumZU4vEVHh2OC1ta0tFbGc
    ## 7                rpubs.com folder 0Bw9rJumZU4vEeC1xb1RYQ2JoTWc
    ## 8             shinyapps.io folder 0Bw9rJumZU4vEY2VtbXdfZ2NHOGs
    ## 9                 plot.Rmd folder 0Bw9rJumZU4vEODhlb2llYU1Jb1U
    ## 10              slides.Rmd folder 0Bw9rJumZU4vEX3otVkxzUEluUWc
    ## # ... with 90 more rows

As another example, by default, this will list 100 drive files. If we want to output more, we can pass the `pageSize` parameter[.](https://www.youtube.com/watch?v=cRpdIrq7Rbo&t=67s)

``` r
gd_ls(pageSize = 200)
```

    ## # A tibble: 200 × 3
    ##                                                name        type
    ##                                               <chr>       <chr>
    ## 1                                 test_for_deleting    document
    ## 2               Football Stadium Survey (Responses) spreadsheet
    ## 3                           Football Stadium Survey        form
    ## 4                           \U0001f33b Lucy & Jenny    document
    ## 5                                 Happy Little Demo    document
    ## 6                                    THIS IS A TEST      folder
    ## 7  Vanderbilt Graduate Student Handbook (Responses) spreadsheet
    ## 8                  WSDS Concurrent Session Abstract    document
    ## 9                 R-Ladies Nashville 6-Month Survey        form
    ## 10           Health Insurance Questions (Responses) spreadsheet
    ## # ... with 190 more rows, and 1 more variables: id <chr>
…
