…
# this will error
# confirm_single_file(d)

confirm_some_files(d)
#> # A dribble: 31 × 3
#>    name                       id       drive_resource   
#>    <chr>                      <drv_id> <list>           
#>  1 bravo                      11RgjTH… <named list [40]>
#>  2 chicken_poem.txt           1lAxO_z… <named list [44]>
#>  3 2021-09-16_r_logo.jpg      1dandXB… <named list [45]>
#>  4 2021-09-16_r_about.html    1XfCI_o… <named list [44]>
#>  5 2021-09-16_imdb_latin1.csv 163YPvq… <named list [43]>
#>  6 2021-09-16_chicken.txt     1axJz8G… <named list [44]>
#>  7 2021-09-16_chicken.pdf     14Hd6_V… <named list [44]>
#>  8 2021-09-16_chicken.jpg     1aslW1T… <named list [45]>
#>  9 2021-09-16_chicken.csv     1Mj--zJ… <named list [43]>
#> 10 pqr                        143iq-C… <named list [36]>
#> # ℹ 21 more rows
…
