Check facts about a dribble — dribble-checks • googledrive
…
# this will error
# confirm_single_file(d)

confirm_some_files(d)
#> # A dribble: 245 × 3
#>    name        id                                           drive_resource
#>    <chr>       <drv_id>                                     <list>        
#>  1 bravo       1ykJ4w0H_ZZlp16oBbBStEdWp5yN7zyO2            <named list>  
#>  2 Lotus 1-2-3 16uhocyM4bfvAIXSB2CkLH0RXo9jEI4NKvUDPYFOQOIk <named list>  
#>  3 SuperCalc   1S8UE1PGFlFz29Z_8U0vkM56flDi0UormQvUY5UirIDk <named list>  
#>  4 ExecuVision 1FvAQllwYHmEeFon8ysUXEYHvZPewkxrFwof9s-0cWkE <named list>  
#>  5 WordStar    1_dlWvyZFl4jOKqUw_ia3vpjv0iUoP9_DcrRly9TsMH0 <named list>  
#>  6 Lotus 1-2-3 1ejszp7yr4fGAsVgOyItqwCRdVZHCe4zS_YmhMkC-8hE <named list>  
#>  7 SuperCalc   1vX7bC4zSZ43_eRy9Cd0-Wmy1F6U0o3Nq3nw1NYC_y4s <named list>  
#>  8 ExecuVision 15jqznOwPMdftLuOOPkQzh-IMeBDl6ywO_FiT6vMSTOs <named list>  
#>  9 WordStar    1GhKCVIhP3J6iXb9abdg1DSQG7cDvmw2_LsCiR8WV_A8 <named list>  
#> 10 Lotus 1-2-3 1_a1VbpMi5ViSQkGuTVg5oqigQ-clbg6evI2kzgQVemI <named list>  
#> # … with 235 more rows
…
