Create a new blank Drive file — drive_create • googledrive
…
# Yet another way to create a new file in a folder,
# this time specifying parent `path` as a character
drive_create("Lotus 1-2-3", path = "b4xl", type = "spreadsheet")
#> Created Drive file:
#> • Lotus 1-2-3 <id: 1_4FhKeNbjUNTHakqjRKLPLwho0UYbPBNebulgr1y1cE>
#> With MIME type:
#> • application/vnd.google-apps.spreadsheet

# Did we really create those Sheets in the intended folder? YES
drive_ls("b4xl")
#> # A dribble: 341 × 3
#>    name        id                                           drive_resource
#>    <chr>       <drv_id>                                     <list>        
#>  1 Lotus 1-2-3 1_4FhKeNbjUNTHakqjRKLPLwho0UYbPBNebulgr1y1cE <named list>  
#>  2 SuperCalc   1JwUckd6JV_Xmt3hij5uA-iHfhPy-tyi41AgEoJDPyNo <named list>  
#>  3 Lotus 1-2-3 18lorjZOu3pH7fgjHb2eBJqOpwXgOj-UYeRLHZAFJep0 <named list>  
#>  4 SuperCalc   1uRVveS6BgHpVS2We-K003ROzzag_bsc14OhrHn0MFwM <named list>  
#>  5 Lotus 1-2-3 1B-kfjyLNPjFAuudFQeRf_Ihu6VSCHeacp6anrbRwXCs <named list>  
#>  6 SuperCalc   1qinh1_Fqdq3Gi2qyjo_QcJED_2KIErkDWbvj9FqAOs0 <named list>  
#>  7 Lotus 1-2-3 18dabsDHcqyu1QwXTJveHjQgkuzzFZZEKyOKD-9TTCAo <named list>  
#>  8 SuperCalc   1LySsaxTXaDw1Soe_1q9SLADG0tqL1vs-LJYAh84IMiE <named list>  
#>  9 Lotus 1-2-3 1LYNOBotPEYbeZQ2in_RBxkWVcazQU-mUI77cOUMsFVo <named list>  
#> 10 SuperCalc   1AaCt508FT5sfqxybwdt5Dv9EI4dcNHESnV7m53876HY <named list>  
#> # … with 331 more rows
…
