Request partial resources — drive_fields • googledrive
…
    Value

drive_fields(): Character vector of field names. prep_fields(): a
string.

    See also

    Improve performance, in
the Drive API documentation.

    Examples

# get a tibble of all fields for the Files resource + indicator of defaults
drive_fields(expose())
#> # A tibble: 55 × 2
#>    name                         desc                                      
#>    <chr>                        <chr>                                     
#>  1 appProperties                "A collection of arbitrary key-value pair…
#>  2 capabilities                 "Capabilities the current user has on thi…
#>  3 contentHints                 "Additional information about the content…
#>  4 copyRequiresWriterPermission "Whether the options to copy, print, or d…
#>  5 createdTime                  "The time at which the file was created (…
#>  6 description                  "A short description of the file."        
#>  7 driveId                      "ID of the shared drive the file resides …
#>  8 explicitlyTrashed            "Whether the file has been explicitly tra…
#>  9 exportLinks                  "Links for exporting Google Docs to speci…
#> 10 fileExtension                "The final component of fullFileExtension…
#> # ℹ 45 more rows
…
