…
## get the mime type for jpegs
drive_mime_type("jpeg")
#> [1] "image/jpeg"

## it's vectorized
drive_mime_type(c("presentation", "pdf", "image/gif"))
#> [1] "application/vnd.google-apps.presentation"
#> [2] "application/pdf"                         
#> [3] "image/gif"                               

## see the internal tibble of MIME types known to the Drive API
drive_mime_type(expose())
#> # A tibble: 89 × 5
#>    mime_type                       ext   description human_type default
#>    <chr>                           <chr> <chr>       <chr>      <lgl>  
#>  1 application/epub+zip            epub  NA          epub       FALSE  
#>  2 application/msword              doc   NA          doc        TRUE   
#>  3 application/pdf                 pdf   NA          pdf        TRUE   
#>  4 application/rtf                 rtf   NA          rtf        TRUE   
#>  5 application/vnd.google-apps.au… NA    NA          audio      NA     
#>  6 application/vnd.google-apps.do… NA    Google Docs document   NA     
#>  7 application/vnd.google-apps.dr… NA    Google Dra… drawing    NA     
#>  8 application/vnd.google-apps.dr… NA    Third-part… drive-sdk  NA     
#>  9 application/vnd.google-apps.fi… NA    Google Dri… file       NA     
#> 10 application/vnd.google-apps.fo… NA    Google Dri… folder     NA     
#> # ℹ 79 more rows
```
