…
`drive_fields()`: Character vector of field names. `prep_fields()`: a
string.

## See also

[Improve
performance](https://developers.google.com/drive/api/v3/performance), in
the Drive API documentation.

## Examples

``` r
# get a tibble of all fields for the Files resource + indicator of defaults
drive_fields(expose())
#> # A tibble: 64 × 2
#>    name                         desc                                   
#>    <chr>                        <chr>                                  
#>  1 appProperties                "A collection of arbitrary key-value p…
#>  2 capabilities                 "Output only. Capabilities the current…
#>  3 contentHints                 "Additional information about the cont…
#>  4 contentRestrictions          "Restrictions for accessing the conten…
#>  5 copyRequiresWriterPermission "Whether the options to copy, print, o…
#>  6 createdTime                  "The time at which the file was create…
#>  7 description                  "A short description of the file."     
#>  8 downloadRestrictions         "Download restrictions applied on the …
#>  9 driveId                      "Output only. ID of the shared drive t…
#> 10 explicitlyTrashed            "Output only. Whether the file has bee…
#> # ℹ 54 more rows
…
