…
``` r
# Create a file and put it in the trash.
file <- drive_example_remote("chicken.txt") |>
  drive_cp("chicken-trash.txt")
#> Original file:
#> • chicken.txt <id: 1wOLeWVRkTb6lDmLRiOhg9iKM7DlN762Y>
#> Copied to file:
#> • chicken-trash.txt <id: 1EMqd5dQVLtQrMPLYJYMBRHfj677qChQf>
drive_trash("chicken-trash.txt")
#> File trashed:
#> • chicken-trash.txt <id: 1EMqd5dQVLtQrMPLYJYMBRHfj677qChQf>

# Confirm it's in the trash
drive_find(trashed = TRUE)
#> # A dribble: 90 × 3
#>    name                 id       drive_resource   
#>    <chr>                <drv_id> <list>           
#>  1 chicken-trash.txt    1EMqd5d… <named list [45]>
#>  2 name-squatter-rename 1N_gzva… <named list [42]>
#>  3 name-squatter-mv     1p5ucWh… <named list [42]>
#>  4 name-squatter-upload 1rbM6yG… <named list [42]>
#>  5 name-squatter-rename 1hVUiDj… <named list [42]>
#>  6 name-squatter-mv     1RqF_uO… <named list [42]>
#>  7 name-squatter-upload 1g07CEG… <named list [42]>
#>  8 name-squatter-rename 1_HlEIi… <named list [42]>
#>  9 name-squatter-mv     1cX0vW6… <named list [42]>
#> 10 name-squatter-upload 1QUPNLY… <named list [42]>
#> # ℹ 80 more rows

# Remove it from the trash and confirm
drive_untrash("chicken-trash.txt")
#> File untrashed:
#> • chicken-trash.txt <id: 1EMqd5dQVLtQrMPLYJYMBRHfj677qChQf>
drive_find(trashed = TRUE)
#> # A dribble: 89 × 3
#>    name                 id       drive_resource   
#>    <chr>                <drv_id> <list>           
#>  1 name-squatter-rename 1N_gzva… <named list [42]>
#>  2 name-squatter-mv     1p5ucWh… <named list [42]>
#>  3 name-squatter-upload 1rbM6yG… <named list [42]>
#>  4 name-squatter-rename 1hVUiDj… <named list [42]>
#>  5 name-squatter-mv     1RqF_uO… <named list [42]>
#>  6 name-squatter-upload 1g07CEG… <named list [42]>
#>  7 name-squatter-rename 1_HlEIi… <named list [42]>
#>  8 name-squatter-mv     1cX0vW6… <named list [42]>
#>  9 name-squatter-upload 1QUPNLY… <named list [42]>
#> 10 name-squatter-rename 1HQrNnX… <named list [42]>
#> # ℹ 79 more rows
…
