An expose object — expose • googledrive
…
    Usage

expose()

    Examples

drive_mime_type(expose())
#> # A tibble: 78 × 5
#>    mime_type                       ext   description human_type default
#>    <chr>                           <chr> <chr>       <chr>      <lgl>  
#>  1 application/epub+zip            NA    NA          NA         NA     
#>  2 application/msword              doc   NA          doc        TRUE   
#>  3 application/msword              dot   NA          dot        FALSE  
#>  4 application/pdf                 pdf   NA          pdf        TRUE   
#>  5 application/rtf                 rtf   NA          rtf        TRUE   
#>  6 application/vnd.google-apps.au… NA    NA          audio      NA     
#>  7 application/vnd.google-apps.do… NA    Google Docs document   NA     
#>  8 application/vnd.google-apps.dr… NA    Google Dra… drawing    NA     
#>  9 application/vnd.google-apps.dr… NA    3rd party … drive-sdk  NA     
#> 10 application/vnd.google-apps.fi… NA    Google Dri… file       NA     
#> # ℹ 68 more rows
drive_fields(expose())
#> # A tibble: 55 × 2
#>    name                         desc                                   
#>    <chr>                        <chr>                                  
#>  1 appProperties                "A collection of arbitrary key-value p…
#>  2 capabilities                 "Capabilities the current user has on …
#>  3 contentHints                 "Additional information about the cont…
#>  4 copyRequiresWriterPermission "Whether the options to copy, print, o…
#>  5 createdTime                  "The time at which the file was create…
#>  6 description                  "A short description of the file."     
#>  7 driveId                      "ID of the shared drive the file resid…
#>  8 explicitlyTrashed            "Whether the file has been explicitly …
#>  9 exportLinks                  "Links for exporting Google Docs to sp…
#> 10 fileExtension                "The final component of fullFileExtens…
#> # ℹ 45 more rows
…
