Identifying files on Google Drive • googledrive
…
      The Drive API

      Identifying files on Google Drive

library(googledrive)

drive_search() is like My Drive

To see your Google Drive files in the browser, visit https://drive.google.com. This displays all your files and offers various ways to filter what you see based on file type, folder, starred vs not, etc.

You can get similar results with drive_search(). By default, it gets info on the most recent 100 files.

(x <- drive_search())
#> # A tibble: 72 x 3
#>                                name
#>  *                            <chr>
#>  1                              def
#>  2                              abc
#>  3                      hadley.docx
#>  4                      hadley.html
#>  5                           hadley
#>  6 upload-into-me-TEST-drive-upload
#>  7        i-am-a-file-TEST-drive-cp
#>  8      i-am-a-folder-TEST-drive-cp
#>  9 move-files-into-me-TEST-drive-mv
#> 10         about-html-TEST-drive-ls
#> # ... with 62 more rows, and 2 more variables: id <chr>,
#> #   files_resource <list>
…
