An Interface to Google Drive • googledrive
…
Most functions begin with the prefix drive_. Auto-completion is your friend.

Goal is to allow Drive access that feels similar to Unix file system utilities, e.g., find, ls, mv, cp, mkdir, and rm.

The metadata for one or more Drive files is held in a dribble, a “Drive tibble”. This is a data frame with one row per file. A dribble is returned (and accepted) by almost every function in googledrive. It is designed to give people what they want (file name), track what the API wants (file id), and to hold the metadata needed for general file operations.

googledrive is “pipe-friendly” and, in fact, re-exports %>%, but does not require its use.

Quick demo

Here’s how to list the first 50 files you see in My Drive. You can expect to be sent to your browser here, to authenticate yourself and authorize the googledrive package to deal on your behalf with Google Drive.

drive_find(n_max = 50)
#> Auto-refreshing stale OAuth token.
#> # A tibble: 50 x 3
#>    name                    id                               drive_resource
#>  * <chr>                   <chr>                            <list>        
#>  1 chicken-xyz.csv         0B0Gh-SuuA2nTVUZGclZiSzZ0bkE     <list [37]>   
#>  2 chicken-rm.txt          0B0Gh-SuuA2nTT3dBbXd1ZWtvSkE     <list [38]>   
#>  3 chicken.jpg             0B0Gh-SuuA2nTbEhtYnIzcFNfX3M     <list [40]>   
#>  4 README-mirrors.csv      1LJlt-1emr662GV8WdEzddzsfqrt-Vg… <list [33]>   
#>  5 README-mirrors.csv      1PLXfempSnjpXbKVEXwMG5vBEnd-Fwm… <list [33]>   
#>  6 def                     0B0Gh-SuuA2nTRG5YWFVGaV8zbU0     <list [31]>   
#>  7 abc                     0B0Gh-SuuA2nTT2NqTGdLVWFkcjA     <list [31]>   
#>  8 folder1-level4          0B0Gh-SuuA2nTaTR6elE0TjZUUHM     <list [32]>   
#>  9 folder1-level3          0B0Gh-SuuA2nTWktWeTB0ajVoQjQ     <list [32]>   
#> 10 cranberry-TEST-drive-ls 1PM--xCb5axy5Uu9f6fDNjPAN2psRbQ… <list [32]>   
#> # ... with 40 more rows
…
