Request partial resources — drive_fields • googledrive
…
## get a tibble of all fields for the Files resource + indicator of defaults
drive_fields(expose())
#> # A tibble: 51 x 3
#>                       name default
#>                      <chr>   <lgl>
#>  1           appProperties    TRUE
#>  2            capabilities    TRUE
#>  3            contentHints    TRUE
#>  4             createdTime    TRUE
#>  5             description    TRUE
#>  6       explicitlyTrashed    TRUE
#>  7           fileExtension    TRUE
#>  8          folderColorRgb    TRUE
#>  9       fullFileExtension    TRUE
#> 10 hasAugmentedPermissions   FALSE
#> # ... with 41 more rows, and 1 more variables: desc <chr>
…
