An expose object — expose • googledrive
…
expose()

    Examples

drive_mime_type(expose())
#> # A tibble: 77 x 4
#>    mime_type                                            ext   human_type default
#>    <chr>                                                <chr> <chr>      <lgl>  
#>  1 application/x-vnd.oasis.opendocument.presentation    NA    NA         NA     
#>  2 text/tab-separated-values                            tsv   tsv        TRUE   
#>  3 image/jpeg                                           jpeg  jpeg       TRUE   
#>  4 image/jpeg                                           jpg   jpg        FALSE  
#>  5 image/jpeg                                           jpe   jpe        FALSE  
#>  6 image/bmp                                            NA    NA         NA     
#>  7 image/gif                                            gif   gif        TRUE   
#>  8 application/vnd.ms-excel.sheet.macroenabled.12       NA    NA         NA     
#>  9 application/vnd.openxmlformats-officedocument.wordp… dotx  dotx       TRUE   
#> 10 application/vnd.ms-powerpoint.presentation.macroena… NA    NA         NA     
#> # … with 67 more rows
drive_fields(expose())
#> # A tibble: 51 x 2
#>    name                desc                                                     
#>    <chr>               <chr>                                                    
#>  1 appProperties       "A collection of arbitrary key-value pairs which are pri…
#>  2 capabilities        Capabilities the current user has on this file. Each cap…
#>  3 contentHints        Additional information about the content of the file. Th…
#>  4 createdTime         The time at which the file was created (RFC 3339 date-ti…
#>  5 description         A short description of the file.                         
#>  6 explicitlyTrashed   Whether the file has been explicitly trashed, as opposed…
#>  7 fileExtension       The final component of fullFileExtension. This is only a…
#>  8 folderColorRgb      "The color for a folder as an RGB hex string. The suppor…
#>  9 fullFileExtension   "The full file extension extracted from the name field. …
#> 10 hasAugmentedPermis… Whether any users are granted file access directly on th…
#> # … with 41 more rows
…
